{"minCounter": 1293, "maxCounter": 394789, "index": {
    "1478": {
        "title": "LlEmail",
        "id": 1478,
        "type": "fn",
        "deprecated": false,
        "is_new": false,
        "counter": 111410,
        "touched": "2014-04-01T04:38:47Z"
    },
    "2896": {
        "title": "LlAbs",
        "id": 2896,
        "type": "fn",
        "deprecated": false,
        "is_new": false,
        "counter": 83942,
        "touched": "2014-04-04T18:08:22Z"
    },
    "2917": {
        "title": "LlGetInventoryType",
        "id": 2917,
        "type": "fn",
        "deprecated": false,
        "is_new": false,
        "counter": 79738,
        "touched": "2014-04-01T04:38:47Z"
    },
    "2919": {
        "title": "LlSetInventoryPermMask",
        "id": 2919,
        "type": "fn",
        "deprecated": false,
        "is_new": false,
        "counter": 47872,
        "touched": "2014-04-01T04:38:47Z"
    },
    "2920": {
        "title": "LlSetObjectPermMask",
        "id": 2920,
        "type": "fn",
        "deprecated": false,
        "is_new": false,
        "counter": 49719,
        "touched": "2014-04-01T04:38:47Z"
    },
    "2922": {
        "title": "LlGodLikeRezObject",
        "id": 2922,
        "type": "fn",
        "deprecated": false,
        "is_new": false,
        "counter": 71552,
        "touched": "2014-04-01T04:38:47Z"
    },
    "2923": {
        "title": "LlSin",
        "id": 2923,
        "type": "fn",
        "deprecated": false,
        "is_new": false,
        "counter": 47434,
        "touched": "2014-04-01T04:38:47Z"
    },
    "2924": {
        "title": "LlCos",
        "id": 2924,
        "type": "fn",
        "deprecated": false,
        "is_new": false,
        "counter": 48087,
        "touched": "2014-04-01T04:38:47Z"
    },
    "2925": {
        "title": "LlTan",
        "id": 2925,
        "type": "fn",
        "deprecated": false,
        "is_new": false,
        "counter": 42873,
        "touched": "2014-04-01T04:38:47Z"
    },
    "2926": {
        "title": "LlAtan2",
        "id": 2926,
        "type": "fn",
        "deprecated": false,
        "is_new": false,
        "counter": 56407,
        "touched": "2014-04-01T04:38:47Z"
    },
    "2927": {
        "title": "LlSqrt",
        "id": 2927,
        "type": "fn",
        "deprecated": false,
        "is_new": false,
        "counter": 47613,
        "touched": "2014-04-04T18:08:22Z"
    },
    "2928": {
        "title": "LlPow",
        "id": 2928,
        "type": "fn",
        "deprecated": false,
        "is_new": false,
        "counter": 51288,
        "touched": "2014-04-01T04:38:47Z"
    },
    "2930": {
        "title": "LlFabs",
        "id": 2930,
        "type": "fn",
        "deprecated": false,
        "is_new": false,
        "counter": 59616,
        "touched": "2014-04-04T18:08:22Z"
    },
    "2931": {
        "title": "LlFrand",
        "id": 2931,
        "type": "fn",
        "deprecated": false,
        "is_new": false,
        "counter": 116371,
        "touched": "2014-04-01T04:38:47Z"
    },
    "2932": {
        "title": "LlFloor",
        "id": 2932,
        "type": "fn",
        "deprecated": false,
        "is_new": false,
        "counter": 59246,
        "touched": "2014-04-01T04:38:47Z"
    },
    "2934": {
        "title": "LlCeil",
        "id": 2934,
        "type": "fn",
        "deprecated": false,
        "is_new": false,
        "counter": 58969,
        "touched": "2014-04-01T04:38:47Z"
    },
    "2935": {
        "title": "LlRound",
        "id": 2935,
        "type": "fn",
        "deprecated": false,
        "is_new": false,
        "counter": 58963,
        "touched": "2014-04-01T04:38:47Z"
    },
    "2936": {
        "title": "LlVecMag",
        "id": 2936,
        "type": "fn",
        "deprecated": false,
        "is_new": false,
        "counter": 64134,
        "touched": "2014-04-01T04:38:47Z"
    },
    "2937": {
        "title": "LlVecNorm",
        "id": 2937,
        "type": "fn",
        "deprecated": false,
        "is_new": false,
        "counter": 67431,
        "touched": "2014-04-01T04:38:47Z"
    },
    "2938": {
        "title": "LlVecDist",
        "id": 2938,
        "type": "fn",
        "deprecated": false,
        "is_new": false,
        "counter": 67394,
        "touched": "2014-04-04T21:23:53Z"
    },
    "2991": {
        "title": "LlRot2Euler",
        "id": 2991,
        "type": "fn",
        "deprecated": false,
        "is_new": false,
        "counter": 58065,
        "touched": "2014-04-01T04:38:47Z"
    },
    "2994": {
        "title": "LlGetParcelDetails",
        "id": 2994,
        "type": "fn",
        "deprecated": false,
        "is_new": false,
        "counter": 89616,
        "touched": "2014-04-01T04:38:47Z"
    },
    "2995": {
        "title": "LlGetParcelMaxPrims",
        "id": 2995,
        "type": "fn",
        "deprecated": false,
        "is_new": false,
        "counter": 53037,
        "touched": "2014-04-01T04:38:47Z"
    },
    "2996": {
        "title": "LlGetParcelPrimCount",
        "id": 2996,
        "type": "fn",
        "deprecated": false,
        "is_new": false,
        "counter": 57554,
        "touched": "2014-04-01T04:38:47Z"
    },
    "2997": {
        "title": "LlGetParcelPrimOwners",
        "id": 2997,
        "type": "fn",
        "deprecated": false,
        "is_new": false,
        "counter": 63319,
        "touched": "2014-04-01T04:38:47Z"
    },
    "2998": {
        "title": "LlGetObjectPrimCount",
        "id": 2998,
        "type": "fn",
        "deprecated": false,
        "is_new": false,
        "counter": 55411,
        "touched": "2014-04-01T04:38:47Z"
    },
    "2999": {
        "title": "LlResetLandPassList",
        "id": 2999,
        "type": "fn",
        "deprecated": false,
        "is_new": false,
        "counter": 38029,
        "touched": "2014-04-01T04:38:47Z"
    },
    "3000": {
        "title": "LlResetLandBanList",
        "id": 3000,
        "type": "fn",
        "deprecated": false,
        "is_new": false,
        "counter": 38544,
        "touched": "2014-04-01T04:38:47Z"
    },
    "3001": {
        "title": "LlHTTPRequest",
        "id": 3001,
        "type": "fn",
        "deprecated": false,
        "is_new": false,
        "counter": 192354,
        "touched": "2014-04-07T17:13:53Z"
    },
    "3002": {
        "title": "LlXorBase64StringsCorrect",
        "id": 3002,
        "type": "fn",
        "deprecated": true,
        "is_new": false,
        "counter": 58432,
        "touched": "2014-04-01T04:38:47Z"
    },
    "3003": {
        "title": "LlGetRegionFlags",
        "id": 3003,
        "type": "fn",
        "deprecated": false,
        "is_new": false,
        "counter": 56372,
        "touched": "2014-04-01T04:38:47Z"
    },
    "3004": {
        "title": "LlGetParcelFlags",
        "id": 3004,
        "type": "fn",
        "deprecated": false,
        "is_new": false,
        "counter": 62317,
        "touched": "2014-04-01T04:38:47Z"
    },
    "3005": {
        "title": "LlGetUnixTime",
        "id": 3005,
        "type": "fn",
        "deprecated": false,
        "is_new": false,
        "counter": 70703,
        "touched": "2014-04-01T04:38:47Z"
    },
    "3006": {
        "title": "LlListStatistics",
        "id": 3006,
        "type": "fn",
        "deprecated": false,
        "is_new": false,
        "counter": 54097,
        "touched": "2014-04-01T04:38:47Z"
    },
    "3007": {
        "title": "LlClearCameraParams",
        "id": 3007,
        "type": "fn",
        "deprecated": false,
        "is_new": false,
        "counter": 52384,
        "touched": "2014-04-01T04:38:47Z"
    },
    "3008": {
        "title": "LlSetCameraParams",
        "id": 3008,
        "type": "fn",
        "deprecated": false,
        "is_new": false,
        "counter": 84605,
        "touched": "2014-04-07T17:13:53Z"
    },
    "3009": {
        "title": "LlRemoveFromLandBanList",
        "id": 3009,
        "type": "fn",
        "deprecated": false,
        "is_new": false,
        "counter": 44565,
        "touched": "2014-04-01T04:38:47Z"
    },
    "3010": {
        "title": "LlRemoveFromLandPassList",
        "id": 3010,
        "type": "fn",
        "deprecated": false,
        "is_new": false,
        "counter": 42674,
        "touched": "2014-04-01T04:38:47Z"
    },
    "3011": {
        "title": "LlAddToLandBanList",
        "id": 3011,
        "type": "fn",
        "deprecated": false,
        "is_new": false,
        "counter": 65489,
        "touched": "2014-04-01T04:38:47Z"
    },
    "3012": {
        "title": "LlMapDestination",
        "id": 3012,
        "type": "fn",
        "deprecated": false,
        "is_new": false,
        "counter": 74859,
        "touched": "2014-04-01T04:38:47Z"
    },
    "3013": {
        "title": "LlUnescapeURL",
        "id": 3013,
        "type": "fn",
        "deprecated": false,
        "is_new": false,
        "counter": 53321,
        "touched": "2014-04-01T04:38:47Z"
    },
    "3014": {
        "title": "LlEscapeURL",
        "id": 3014,
        "type": "fn",
        "deprecated": false,
        "is_new": false,
        "counter": 67529,
        "touched": "2014-04-01T04:38:47Z"
    },
    "3015": {
        "title": "LlRefreshPrimURL",
        "id": 3015,
        "type": "fn",
        "deprecated": true,
        "is_new": false,
        "counter": 39675,
        "touched": "2014-04-01T04:38:47Z"
    },
    "3016": {
        "title": "LlSetPrimURL",
        "id": 3016,
        "type": "fn",
        "deprecated": true,
        "is_new": false,
        "counter": 41954,
        "touched": "2014-04-01T04:38:47Z"
    },
    "3018": {
        "title": "LlGetCameraRot",
        "id": 3018,
        "type": "fn",
        "deprecated": false,
        "is_new": false,
        "counter": 54928,
        "touched": "2014-04-01T04:38:47Z"
    },
    "3019": {
        "title": "LlGetCameraPos",
        "id": 3019,
        "type": "fn",
        "deprecated": false,
        "is_new": false,
        "counter": 59689,
        "touched": "2014-04-01T04:38:47Z"
    },
    "3020": {
        "title": "LlSetPayPrice",
        "id": 3020,
        "type": "fn",
        "deprecated": false,
        "is_new": false,
        "counter": 88772,
        "touched": "2014-04-01T04:38:47Z"
    },
    "3022": {
        "title": "LlModPow",
        "id": 3022,
        "type": "fn",
        "deprecated": false,
        "is_new": false,
        "counter": 43635,
        "touched": "2014-04-01T04:38:47Z"
    },
    "3023": {
        "title": "LlParcelMediaQuery",
        "id": 3023,
        "type": "fn",
        "deprecated": false,
        "is_new": false,
        "counter": 55076,
        "touched": "2014-04-01T04:38:47Z"
    },
    "3025": {
        "title": "LlParcelMediaCommandList",
        "id": 3025,
        "type": "fn",
        "deprecated": false,
        "is_new": false,
        "counter": 76264,
        "touched": "2014-04-01T04:38:47Z"
    },
    "3026": {
        "title": "LlLoadURL",
        "id": 3026,
        "type": "fn",
        "deprecated": false,
        "is_new": false,
        "counter": 111439,
        "touched": "2014-04-01T04:38:47Z"
    },
    "3027": {
        "title": "LlListReplaceList",
        "id": 3027,
        "type": "fn",
        "deprecated": false,
        "is_new": false,
        "counter": 77691,
        "touched": "2014-04-01T04:38:47Z"
    },
    "3028": {
        "title": "LlGetObjectMass",
        "id": 3028,
        "type": "fn",
        "deprecated": false,
        "is_new": false,
        "counter": 53503,
        "touched": "2014-04-01T04:38:47Z"
    },
    "3029": {
        "title": "LlForceMouselook",
        "id": 3029,
        "type": "fn",
        "deprecated": false,
        "is_new": false,
        "counter": 63057,
        "touched": "2014-04-01T04:38:47Z"
    },
    "3030": {
        "title": "LlRequestSimulatorData",
        "id": 3030,
        "type": "fn",
        "deprecated": false,
        "is_new": false,
        "counter": 74206,
        "touched": "2014-04-01T04:38:47Z"
    },
    "3031": {
        "title": "LlOwnerSay",
        "id": 3031,
        "type": "fn",
        "deprecated": false,
        "is_new": false,
        "counter": 115101,
        "touched": "2014-04-04T18:08:22Z"
    },
    "3032": {
        "title": "LlGetInventoryCreator",
        "id": 3032,
        "type": "fn",
        "deprecated": false,
        "is_new": false,
        "counter": 57968,
        "touched": "2014-04-01T04:38:47Z"
    },
    "3034": {
        "title": "LlGetInventoryPermMask",
        "id": 3034,
        "type": "fn",
        "deprecated": false,
        "is_new": false,
        "counter": 68664,
        "touched": "2014-04-01T04:38:47Z"
    },
    "3036": {
        "title": "LlGetObjectPermMask",
        "id": 3036,
        "type": "fn",
        "deprecated": false,
        "is_new": false,
        "counter": 54905,
        "touched": "2014-04-01T04:38:47Z"
    },
    "3037": {
        "title": "LlRezAtRoot",
        "id": 3037,
        "type": "fn",
        "deprecated": false,
        "is_new": false,
        "counter": 91509,
        "touched": "2014-04-01T04:38:47Z"
    },
    "3038": {
        "title": "LlParseStringKeepNulls",
        "id": 3038,
        "type": "fn",
        "deprecated": false,
        "is_new": false,
        "counter": 57053,
        "touched": "2014-04-01T04:38:47Z"
    },
    "3039": {
        "title": "LlSetLocalRot",
        "id": 3039,
        "type": "fn",
        "deprecated": false,
        "is_new": false,
        "counter": 79438,
        "touched": "2014-04-04T20:42:08Z"
    },
    "3040": {
        "title": "LlGetSimulatorHostname",
        "id": 3040,
        "type": "fn",
        "deprecated": false,
        "is_new": false,
        "counter": 52921,
        "touched": "2014-04-01T04:38:47Z"
    },
    "3041": {
        "title": "LlGetGMTclock",
        "id": 3041,
        "type": "fn",
        "deprecated": false,
        "is_new": false,
        "counter": 61005,
        "touched": "2014-04-01T04:38:47Z"
    },
    "3042": {
        "title": "LlBase64ToInteger",
        "id": 3042,
        "type": "fn",
        "deprecated": false,
        "is_new": false,
        "counter": 56648,
        "touched": "2014-04-01T04:38:47Z"
    },
    "3043": {
        "title": "LlIntegerToBase64",
        "id": 3043,
        "type": "fn",
        "deprecated": false,
        "is_new": false,
        "counter": 47124,
        "touched": "2014-04-01T04:38:47Z"
    },
    "3044": {
        "title": "LlGetPrimitiveParams",
        "id": 3044,
        "type": "fn",
        "deprecated": false,
        "is_new": false,
        "counter": 161789,
        "touched": "2014-04-07T19:59:04Z"
    },
    "3045": {
        "title": "LlGetGeometricCenter",
        "id": 3045,
        "type": "fn",
        "deprecated": false,
        "is_new": false,
        "counter": 52283,
        "touched": "2014-04-04T18:08:22Z"
    },
    "3046": {
        "title": "LlGetBoundingBox",
        "id": 3046,
        "type": "fn",
        "deprecated": false,
        "is_new": false,
        "counter": 59204,
        "touched": "2014-04-01T04:38:47Z"
    },
    "3047": {
        "title": "LlGetNumberOfNotecardLines",
        "id": 3047,
        "type": "fn",
        "deprecated": false,
        "is_new": false,
        "counter": 60661,
        "touched": "2014-04-01T04:38:47Z"
    },
    "3048": {
        "title": "LlGetNumberOfPrims",
        "id": 3048,
        "type": "fn",
        "deprecated": false,
        "is_new": false,
        "counter": 72126,
        "touched": "2014-04-01T04:38:47Z"
    },
    "3049": {
        "title": "LlSetLinkAlpha",
        "id": 3049,
        "type": "fn",
        "deprecated": false,
        "is_new": false,
        "counter": 92978,
        "touched": "2014-04-01T04:38:47Z"
    },
    "3050": {
        "title": "LlGetTimestamp",
        "id": 3050,
        "type": "fn",
        "deprecated": false,
        "is_new": false,
        "counter": 73929,
        "touched": "2014-04-01T04:38:47Z"
    },
    "3051": {
        "title": "LlGetCreator",
        "id": 3051,
        "type": "fn",
        "deprecated": false,
        "is_new": false,
        "counter": 62170,
        "touched": "2014-04-04T18:08:22Z"
    },
    "3052": {
        "title": "LlSetObjectDesc",
        "id": 3052,
        "type": "fn",
        "deprecated": false,
        "is_new": false,
        "counter": 69906,
        "touched": "2014-04-01T04:38:47Z"
    },
    "3053": {
        "title": "LlGetObjectDesc",
        "id": 3053,
        "type": "fn",
        "deprecated": false,
        "is_new": false,
        "counter": 75914,
        "touched": "2014-04-01T04:38:47Z"
    },
    "3054": {
        "title": "LlGetRootRotation",
        "id": 3054,
        "type": "fn",
        "deprecated": false,
        "is_new": false,
        "counter": 66812,
        "touched": "2014-04-01T04:38:47Z"
    },
    "3055": {
        "title": "LlGetRootPosition",
        "id": 3055,
        "type": "fn",
        "deprecated": false,
        "is_new": false,
        "counter": 57343,
        "touched": "2014-04-01T04:38:47Z"
    },
    "3056": {
        "title": "LlSetParcelMusicURL",
        "id": 3056,
        "type": "fn",
        "deprecated": false,
        "is_new": false,
        "counter": 59302,
        "touched": "2014-04-01T04:38:47Z"
    },
    "3057": {
        "title": "LlGetAnimationList",
        "id": 3057,
        "type": "fn",
        "deprecated": false,
        "is_new": false,
        "counter": 80202,
        "touched": "2014-04-01T04:38:47Z"
    },
    "3058": {
        "title": "LlLog",
        "id": 3058,
        "type": "fn",
        "deprecated": false,
        "is_new": false,
        "counter": 48203,
        "touched": "2014-04-01T04:38:47Z"
    },
    "3059": {
        "title": "LlLog10",
        "id": 3059,
        "type": "fn",
        "deprecated": false,
        "is_new": false,
        "counter": 42618,
        "touched": "2014-04-01T04:38:47Z"
    },
    "3060": {
        "title": "LlRemoteDataSetRegion",
        "id": 3060,
        "type": "fn",
        "deprecated": true,
        "is_new": false,
        "counter": 40271,
        "touched": "2014-04-01T04:38:47Z"
    },
    "3061": {
        "title": "LlXorBase64Strings",
        "id": 3061,
        "type": "fn",
        "deprecated": true,
        "is_new": false,
        "counter": 39601,
        "touched": "2014-04-01T04:38:47Z"
    },
    "3062": {
        "title": "LlBase64ToString",
        "id": 3062,
        "type": "fn",
        "deprecated": false,
        "is_new": false,
        "counter": 53113,
        "touched": "2014-04-01T04:38:47Z"
    },
    "3063": {
        "title": "LlStringToBase64",
        "id": 3063,
        "type": "fn",
        "deprecated": false,
        "is_new": false,
        "counter": 49675,
        "touched": "2014-04-01T04:38:47Z"
    },
    "3064": {
        "title": "LlSetPrimitiveParams",
        "id": 3064,
        "type": "fn",
        "deprecated": false,
        "is_new": false,
        "counter": 394789,
        "touched": "2014-04-07T17:13:53Z"
    },
    "3065": {
        "title": "LlMD5String",
        "id": 3065,
        "type": "fn",
        "deprecated": false,
        "is_new": false,
        "counter": 55669,
        "touched": "2014-04-01T04:38:47Z"
    },
    "3066": {
        "title": "LlCloseRemoteDataChannel",
        "id": 3066,
        "type": "fn",
        "deprecated": false,
        "is_new": false,
        "counter": 46938,
        "touched": "2014-04-01T04:38:47Z"
    },
    "3067": {
        "title": "LlRemoteDataReply",
        "id": 3067,
        "type": "fn",
        "deprecated": false,
        "is_new": false,
        "counter": 51395,
        "touched": "2014-04-01T04:38:47Z"
    },
    "3068": {
        "title": "LlSendRemoteData",
        "id": 3068,
        "type": "fn",
        "deprecated": false,
        "is_new": false,
        "counter": 47970,
        "touched": "2014-04-01T04:38:47Z"
    },
    "3069": {
        "title": "LlOpenRemoteDataChannel",
        "id": 3069,
        "type": "fn",
        "deprecated": false,
        "is_new": false,
        "counter": 50467,
        "touched": "2014-04-01T04:38:47Z"
    },
    "3070": {
        "title": "LlRemoteLoadScriptPin",
        "id": 3070,
        "type": "fn",
        "deprecated": false,
        "is_new": false,
        "counter": 81786,
        "touched": "2014-04-01T04:38:47Z"
    },
    "3071": {
        "title": "LlSetRemoteScriptAccessPin",
        "id": 3071,
        "type": "fn",
        "deprecated": false,
        "is_new": false,
        "counter": 57928,
        "touched": "2014-04-01T04:38:47Z"
    },
    "3072": {
        "title": "LlRemoteLoadScript",
        "id": 3072,
        "type": "fn",
        "deprecated": true,
        "is_new": false,
        "counter": 47620,
        "touched": "2014-04-01T04:38:47Z"
    },
    "3073": {
        "title": "LlGetScriptState",
        "id": 3073,
        "type": "fn",
        "deprecated": false,
        "is_new": false,
        "counter": 53543,
        "touched": "2014-04-01T04:38:47Z"
    },
    "3074": {
        "title": "LlResetOtherScript",
        "id": 3074,
        "type": "fn",
        "deprecated": false,
        "is_new": false,
        "counter": 66688,
        "touched": "2014-04-01T04:38:47Z"
    },
    "3075": {
        "title": "LlVolumeDetect",
        "id": 3075,
        "type": "fn",
        "deprecated": false,
        "is_new": false,
        "counter": 87719,
        "touched": "2014-04-01T04:38:47Z"
    },
    "3076": {
        "title": "LlDialog",
        "id": 3076,
        "type": "fn",
        "deprecated": false,
        "is_new": false,
        "counter": 191869,
        "touched": "2014-04-01T04:38:47Z"
    },
    "3077": {
        "title": "LlScriptDanger",
        "id": 3077,
        "type": "fn",
        "deprecated": false,
        "is_new": false,
        "counter": 48110,
        "touched": "2014-04-01T04:38:47Z"
    },
    "3078": {
        "title": "LlDumpList2String",
        "id": 3078,
        "type": "fn",
        "deprecated": false,
        "is_new": false,
        "counter": 78242,
        "touched": "2014-04-01T04:38:47Z"
    },
    "3079": {
        "title": "LlSetCameraAtOffset",
        "id": 3079,
        "type": "fn",
        "deprecated": false,
        "is_new": false,
        "counter": 56132,
        "touched": "2014-04-01T04:38:47Z"
    },
    "3080": {
        "title": "LlSetCameraEyeOffset",
        "id": 3080,
        "type": "fn",
        "deprecated": false,
        "is_new": false,
        "counter": 56155,
        "touched": "2014-04-01T04:38:47Z"
    },
    "3081": {
        "title": "LlSetSitText",
        "id": 3081,
        "type": "fn",
        "deprecated": false,
        "is_new": false,
        "counter": 59684,
        "touched": "2014-04-01T04:38:47Z"
    },
    "3082": {
        "title": "LlSetTouchText",
        "id": 3082,
        "type": "fn",
        "deprecated": false,
        "is_new": false,
        "counter": 58158,
        "touched": "2014-04-01T04:38:47Z"
    },
    "3083": {
        "title": "LlAddToLandPassList",
        "id": 3083,
        "type": "fn",
        "deprecated": false,
        "is_new": false,
        "counter": 52799,
        "touched": "2014-04-01T04:38:47Z"
    },
    "3084": {
        "title": "LlAvatarOnSitTarget",
        "id": 3084,
        "type": "fn",
        "deprecated": false,
        "is_new": false,
        "counter": 103431,
        "touched": "2014-04-01T04:38:47Z"
    },
    "3085": {
        "title": "LlSitTarget",
        "id": 3085,
        "type": "fn",
        "deprecated": false,
        "is_new": false,
        "counter": 147953,
        "touched": "2014-04-04T18:08:22Z"
    },
    "3086": {
        "title": "LlRemoveVehicleFlags",
        "id": 3086,
        "type": "fn",
        "deprecated": false,
        "is_new": false,
        "counter": 42308,
        "touched": "2014-04-01T04:38:47Z"
    },
    "3087": {
        "title": "LlSetVehicleFlags",
        "id": 3087,
        "type": "fn",
        "deprecated": false,
        "is_new": false,
        "counter": 49153,
        "touched": "2014-04-01T04:38:47Z"
    },
    "3088": {
        "title": "LlSetVehicleVectorParam",
        "id": 3088,
        "type": "fn",
        "deprecated": false,
        "is_new": false,
        "counter": 49890,
        "touched": "2014-04-01T04:38:47Z"
    },
    "3089": {
        "title": "LlSetVehicleFloatParam",
        "id": 3089,
        "type": "fn",
        "deprecated": false,
        "is_new": false,
        "counter": 52026,
        "touched": "2014-04-01T04:38:47Z"
    },
    "3090": {
        "title": "LlSetVehicleType",
        "id": 3090,
        "type": "fn",
        "deprecated": false,
        "is_new": false,
        "counter": 63444,
        "touched": "2014-04-01T04:38:47Z"
    },
    "3091": {
        "title": "LlGiveInventoryList",
        "id": 3091,
        "type": "fn",
        "deprecated": false,
        "is_new": false,
        "counter": 103355,
        "touched": "2014-04-01T04:38:47Z"
    },
    "3092": {
        "title": "LlGroundRepel",
        "id": 3092,
        "type": "fn",
        "deprecated": false,
        "is_new": false,
        "counter": 59725,
        "touched": "2014-04-01T04:38:47Z"
    },
    "3093": {
        "title": "LlParticleSystem",
        "id": 3093,
        "type": "fn",
        "deprecated": false,
        "is_new": false,
        "counter": 208419,
        "touched": "2014-04-07T17:13:53Z"
    },
    "3094": {
        "title": "LlGetRegionFPS",
        "id": 3094,
        "type": "fn",
        "deprecated": false,
        "is_new": false,
        "counter": 52779,
        "touched": "2014-04-01T04:38:47Z"
    },
    "3095": {
        "title": "LlGetRegionTimeDilation",
        "id": 3095,
        "type": "fn",
        "deprecated": false,
        "is_new": false,
        "counter": 64595,
        "touched": "2014-04-01T04:38:47Z"
    },
    "3096": {
        "title": "LlGetRegionName",
        "id": 3096,
        "type": "fn",
        "deprecated": false,
        "is_new": false,
        "counter": 63400,
        "touched": "2014-04-01T04:38:47Z"
    },
    "3097": {
        "title": "LlGetFreeMemory",
        "id": 3097,
        "type": "fn",
        "deprecated": false,
        "is_new": false,
        "counter": 69271,
        "touched": "2014-04-01T04:38:47Z"
    },
    "3098": {
        "title": "LlGetAttached",
        "id": 3098,
        "type": "fn",
        "deprecated": false,
        "is_new": false,
        "counter": 83001,
        "touched": "2014-04-01T04:38:47Z"
    },
    "3099": {
        "title": "LlGroundContour",
        "id": 3099,
        "type": "fn",
        "deprecated": false,
        "is_new": false,
        "counter": 50642,
        "touched": "2014-04-01T04:38:47Z"
    },
    "3100": {
        "title": "LlGroundNormal",
        "id": 3100,
        "type": "fn",
        "deprecated": false,
        "is_new": false,
        "counter": 48142,
        "touched": "2014-04-01T04:38:47Z"
    },
    "3102": {
        "title": "LlGroundSlope",
        "id": 3102,
        "type": "fn",
        "deprecated": false,
        "is_new": false,
        "counter": 47859,
        "touched": "2014-04-01T04:38:47Z"
    },
    "3103": {
        "title": "LlUnSit",
        "id": 3103,
        "type": "fn",
        "deprecated": false,
        "is_new": false,
        "counter": 77106,
        "touched": "2014-04-04T18:08:22Z"
    },
    "3104": {
        "title": "LlSameGroup",
        "id": 3104,
        "type": "fn",
        "deprecated": false,
        "is_new": false,
        "counter": 85726,
        "touched": "2014-04-04T18:08:22Z"
    },
    "3105": {
        "title": "LlGetAgentSize",
        "id": 3105,
        "type": "fn",
        "deprecated": false,
        "is_new": false,
        "counter": 79195,
        "touched": "2014-04-01T04:38:47Z"
    },
    "3106": {
        "title": "LlGetNotecardLine",
        "id": 3106,
        "type": "fn",
        "deprecated": false,
        "is_new": false,
        "counter": 106762,
        "touched": "2014-04-01T04:38:47Z"
    },
    "3107": {
        "title": "LlGetLandOwnerAt",
        "id": 3107,
        "type": "fn",
        "deprecated": false,
        "is_new": false,
        "counter": 51842,
        "touched": "2014-04-01T04:38:47Z"
    },
    "3108": {
        "title": "LlOverMyLand",
        "id": 3108,
        "type": "fn",
        "deprecated": false,
        "is_new": false,
        "counter": 61413,
        "touched": "2014-04-01T04:38:47Z"
    },
    "3109": {
        "title": "LlParseString2List",
        "id": 3109,
        "type": "fn",
        "deprecated": false,
        "is_new": false,
        "counter": 108583,
        "touched": "2014-04-01T04:38:47Z"
    },
    "3110": {
        "title": "LlEjectFromLand",
        "id": 3110,
        "type": "fn",
        "deprecated": false,
        "is_new": false,
        "counter": 70487,
        "touched": "2014-04-04T18:08:22Z"
    },
    "3111": {
        "title": "LlTriggerSoundLimited",
        "id": 3111,
        "type": "fn",
        "deprecated": false,
        "is_new": false,
        "counter": 56277,
        "touched": "2014-04-01T04:38:47Z"
    },
    "3112": {
        "title": "LlSetTextureAnim",
        "id": 3112,
        "type": "fn",
        "deprecated": false,
        "is_new": false,
        "counter": 210147,
        "touched": "2014-04-01T04:38:47Z"
    },
    "3113": {
        "title": "LlKey2Name",
        "id": 3113,
        "type": "fn",
        "deprecated": false,
        "is_new": false,
        "counter": 139567,
        "touched": "2014-04-01T04:38:47Z"
    },
    "3114": {
        "title": "LlSetSoundRadius",
        "id": 3114,
        "type": "fn",
        "deprecated": false,
        "is_new": false,
        "counter": 49167,
        "touched": "2014-04-01T04:38:47Z"
    },
    "3115": {
        "title": "LlSetSoundQueueing",
        "id": 3115,
        "type": "fn",
        "deprecated": false,
        "is_new": false,
        "counter": 56918,
        "touched": "2014-04-01T04:38:47Z"
    },
    "3116": {
        "title": "LlAdjustSoundVolume",
        "id": 3116,
        "type": "fn",
        "deprecated": false,
        "is_new": false,
        "counter": 54366,
        "touched": "2014-04-01T04:38:47Z"
    },
    "3117": {
        "title": "LlGetAgentInfo",
        "id": 3117,
        "type": "fn",
        "deprecated": false,
        "is_new": false,
        "counter": 146138,
        "touched": "2014-04-01T04:38:47Z"
    },
    "3118": {
        "title": "LlEdgeOfWorld",
        "id": 3118,
        "type": "fn",
        "deprecated": false,
        "is_new": false,
        "counter": 57310,
        "touched": "2014-04-04T18:08:22Z"
    },
    "3119": {
        "title": "LlGetDate",
        "id": 3119,
        "type": "fn",
        "deprecated": false,
        "is_new": false,
        "counter": 67534,
        "touched": "2014-04-01T04:38:47Z"
    },
    "3120": {
        "title": "LlSetObjectName",
        "id": 3120,
        "type": "fn",
        "deprecated": false,
        "is_new": false,
        "counter": 68148,
        "touched": "2014-04-01T04:38:47Z"
    },
    "3121": {
        "title": "LlGetObjectName",
        "id": 3121,
        "type": "fn",
        "deprecated": false,
        "is_new": false,
        "counter": 72857,
        "touched": "2014-04-01T04:38:47Z"
    },
    "3122": {
        "title": "LlListFindList",
        "id": 3122,
        "type": "fn",
        "deprecated": false,
        "is_new": false,
        "counter": 111206,
        "touched": "2014-04-01T04:38:47Z"
    },
    "3123": {
        "title": "LlListInsertList",
        "id": 3123,
        "type": "fn",
        "deprecated": false,
        "is_new": false,
        "counter": 63122,
        "touched": "2014-04-01T04:38:47Z"
    },
    "3124": {
        "title": "LlGetRegionCorner",
        "id": 3124,
        "type": "fn",
        "deprecated": false,
        "is_new": false,
        "counter": 52399,
        "touched": "2014-04-01T04:38:47Z"
    },
    "3125": {
        "title": "LlList2ListStrided",
        "id": 3125,
        "type": "fn",
        "deprecated": false,
        "is_new": false,
        "counter": 61535,
        "touched": "2014-04-01T04:38:47Z"
    },
    "3126": {
        "title": "LlListRandomize",
        "id": 3126,
        "type": "fn",
        "deprecated": false,
        "is_new": false,
        "counter": 58490,
        "touched": "2014-04-01T04:38:47Z"
    },
    "3127": {
        "title": "LlCSV2List",
        "id": 3127,
        "type": "fn",
        "deprecated": false,
        "is_new": false,
        "counter": 69266,
        "touched": "2014-04-01T04:38:47Z"
    },
    "3128": {
        "title": "LlList2CSV",
        "id": 3128,
        "type": "fn",
        "deprecated": false,
        "is_new": false,
        "counter": 60840,
        "touched": "2014-04-01T04:38:47Z"
    },
    "3129": {
        "title": "LlGetListEntryType",
        "id": 3129,
        "type": "fn",
        "deprecated": false,
        "is_new": false,
        "counter": 60662,
        "touched": "2014-04-07T16:31:53Z"
    },
    "3130": {
        "title": "LlDeleteSubList",
        "id": 3130,
        "type": "fn",
        "deprecated": false,
        "is_new": false,
        "counter": 79854,
        "touched": "2014-04-01T04:38:47Z"
    },
    "3131": {
        "title": "LlList2List",
        "id": 3131,
        "type": "fn",
        "deprecated": false,
        "is_new": false,
        "counter": 69200,
        "touched": "2014-04-01T04:38:47Z"
    },
    "3132": {
        "title": "LlList2Rot",
        "id": 3132,
        "type": "fn",
        "deprecated": false,
        "is_new": false,
        "counter": 50542,
        "touched": "2014-04-01T04:38:47Z"
    },
    "3133": {
        "title": "LlList2Vector",
        "id": 3133,
        "type": "fn",
        "deprecated": false,
        "is_new": false,
        "counter": 65933,
        "touched": "2014-04-01T04:38:47Z"
    },
    "3134": {
        "title": "LlList2Key",
        "id": 3134,
        "type": "fn",
        "deprecated": false,
        "is_new": false,
        "counter": 55697,
        "touched": "2014-04-01T04:38:47Z"
    },
    "3135": {
        "title": "LlList2String",
        "id": 3135,
        "type": "fn",
        "deprecated": false,
        "is_new": false,
        "counter": 104572,
        "touched": "2014-04-01T04:38:47Z"
    },
    "3136": {
        "title": "LlList2Float",
        "id": 3136,
        "type": "fn",
        "deprecated": false,
        "is_new": false,
        "counter": 56442,
        "touched": "2014-04-01T04:38:47Z"
    },
    "3137": {
        "title": "LlList2Integer",
        "id": 3137,
        "type": "fn",
        "deprecated": false,
        "is_new": false,
        "counter": 65833,
        "touched": "2014-04-01T04:38:47Z"
    },
    "3138": {
        "title": "LlGetListLength",
        "id": 3138,
        "type": "fn",
        "deprecated": false,
        "is_new": false,
        "counter": 85585,
        "touched": "2014-04-01T04:38:47Z"
    },
    "3139": {
        "title": "LlListSort",
        "id": 3139,
        "type": "fn",
        "deprecated": false,
        "is_new": false,
        "counter": 74280,
        "touched": "2014-04-06T03:01:30Z"
    },
    "3140": {
        "title": "LlGetCenterOfMass",
        "id": 3140,
        "type": "fn",
        "deprecated": false,
        "is_new": false,
        "counter": 49054,
        "touched": "2014-04-01T04:38:47Z"
    },
    "3141": {
        "title": "LlGetOwnerKey",
        "id": 3141,
        "type": "fn",
        "deprecated": false,
        "is_new": false,
        "counter": 83233,
        "touched": "2014-04-01T04:38:47Z"
    },
    "3142": {
        "title": "LlSubStringIndex",
        "id": 3142,
        "type": "fn",
        "deprecated": false,
        "is_new": false,
        "counter": 93866,
        "touched": "2014-04-01T04:38:47Z"
    },
    "3143": {
        "title": "LlGetTextureRot",
        "id": 3143,
        "type": "fn",
        "deprecated": false,
        "is_new": false,
        "counter": 48727,
        "touched": "2014-04-01T04:38:47Z"
    },
    "3144": {
        "title": "LlGetTextureScale",
        "id": 3144,
        "type": "fn",
        "deprecated": false,
        "is_new": false,
        "counter": 49504,
        "touched": "2014-04-01T04:38:47Z"
    },
    "3145": {
        "title": "LlGetTextureOffset",
        "id": 3145,
        "type": "fn",
        "deprecated": false,
        "is_new": false,
        "counter": 49117,
        "touched": "2014-04-01T04:38:47Z"
    },
    "3146": {
        "title": "LlGetSunDirection",
        "id": 3146,
        "type": "fn",
        "deprecated": false,
        "is_new": false,
        "counter": 62279,
        "touched": "2014-04-01T04:38:47Z"
    },
    "3147": {
        "title": "LlAllowInventoryDrop",
        "id": 3147,
        "type": "fn",
        "deprecated": false,
        "is_new": false,
        "counter": 84204,
        "touched": "2014-04-01T04:38:47Z"
    },
    "3148": {
        "title": "LlGetInventoryKey",
        "id": 3148,
        "type": "fn",
        "deprecated": false,
        "is_new": false,
        "counter": 81798,
        "touched": "2014-04-01T04:38:47Z"
    },
    "3149": {
        "title": "LlAngleBetween",
        "id": 3149,
        "type": "fn",
        "deprecated": false,
        "is_new": false,
        "counter": 61336,
        "touched": "2014-04-01T04:38:47Z"
    },
    "3150": {
        "title": "LlAsin",
        "id": 3150,
        "type": "fn",
        "deprecated": false,
        "is_new": false,
        "counter": 49049,
        "touched": "2014-04-01T04:38:47Z"
    },
    "3151": {
        "title": "LlAcos",
        "id": 3151,
        "type": "fn",
        "deprecated": false,
        "is_new": false,
        "counter": 54473,
        "touched": "2014-04-01T04:38:47Z"
    },
    "3152": {
        "title": "LlRot2Angle",
        "id": 3152,
        "type": "fn",
        "deprecated": false,
        "is_new": false,
        "counter": 59967,
        "touched": "2014-04-01T04:38:47Z"
    },
    "3153": {
        "title": "LlRot2Axis",
        "id": 3153,
        "type": "fn",
        "deprecated": false,
        "is_new": false,
        "counter": 58525,
        "touched": "2014-04-01T04:38:47Z"
    },
    "3154": {
        "title": "LlAxisAngle2Rot",
        "id": 3154,
        "type": "fn",
        "deprecated": false,
        "is_new": false,
        "counter": 59717,
        "touched": "2014-04-01T04:38:47Z"
    },
    "3155": {
        "title": "LlGetNumberOfSides",
        "id": 3155,
        "type": "fn",
        "deprecated": false,
        "is_new": false,
        "counter": 50844,
        "touched": "2014-04-01T04:38:47Z"
    },
    "3156": {
        "title": "LlGetScriptName",
        "id": 3156,
        "type": "fn",
        "deprecated": false,
        "is_new": false,
        "counter": 61384,
        "touched": "2014-04-01T04:38:47Z"
    },
    "3157": {
        "title": "LlPassCollisions",
        "id": 3157,
        "type": "fn",
        "deprecated": false,
        "is_new": false,
        "counter": 68389,
        "touched": "2014-04-01T04:38:47Z"
    },
    "3158": {
        "title": "LlPushObject",
        "id": 3158,
        "type": "fn",
        "deprecated": false,
        "is_new": false,
        "counter": 76162,
        "touched": "2014-04-01T04:38:47Z"
    },
    "3159": {
        "title": "LlMessageLinked",
        "id": 3159,
        "type": "fn",
        "deprecated": false,
        "is_new": false,
        "counter": 192080,
        "touched": "2014-04-01T04:38:47Z"
    },
    "3160": {
        "title": "LlResetScript",
        "id": 3160,
        "type": "fn",
        "deprecated": false,
        "is_new": false,
        "counter": 80970,
        "touched": "2014-04-01T04:38:47Z"
    },
    "3161": {
        "title": "LlGetAnimation",
        "id": 3161,
        "type": "fn",
        "deprecated": false,
        "is_new": false,
        "counter": 95925,
        "touched": "2014-04-01T04:38:47Z"
    },
    "3162": {
        "title": "LlCollisionSprite",
        "id": 3162,
        "type": "fn",
        "deprecated": false,
        "is_new": false,
        "counter": 73229,
        "touched": "2014-04-01T04:38:47Z"
    },
    "3163": {
        "title": "LlCollisionSound",
        "id": 3163,
        "type": "fn",
        "deprecated": false,
        "is_new": false,
        "counter": 65166,
        "touched": "2014-04-01T04:38:47Z"
    },
    "3164": {
        "title": "LlModifyLand",
        "id": 3164,
        "type": "fn",
        "deprecated": false,
        "is_new": false,
        "counter": 55642,
        "touched": "2014-04-01T04:38:47Z"
    },
    "3165": {
        "title": "LlTeleportAgentHome",
        "id": 3165,
        "type": "fn",
        "deprecated": false,
        "is_new": false,
        "counter": 71910,
        "touched": "2014-04-01T04:38:47Z"
    },
    "3166": {
        "title": "LlSetDamage",
        "id": 3166,
        "type": "fn",
        "deprecated": false,
        "is_new": false,
        "counter": 53530,
        "touched": "2014-04-01T04:38:47Z"
    },
    "3167": {
        "title": "LlRequestInventoryData",
        "id": 3167,
        "type": "fn",
        "deprecated": false,
        "is_new": false,
        "counter": 64028,
        "touched": "2014-04-01T04:38:47Z"
    },
    "3168": {
        "title": "LlRequestAgentData",
        "id": 3168,
        "type": "fn",
        "deprecated": false,
        "is_new": false,
        "counter": 120787,
        "touched": "2014-04-01T04:38:47Z"
    },
    "3169": {
        "title": "LlPassTouches",
        "id": 3169,
        "type": "fn",
        "deprecated": false,
        "is_new": false,
        "counter": 67149,
        "touched": "2014-04-01T04:38:47Z"
    },
    "3170": {
        "title": "LlWater",
        "id": 3170,
        "type": "fn",
        "deprecated": false,
        "is_new": false,
        "counter": 54029,
        "touched": "2014-04-01T04:38:47Z"
    },
    "3171": {
        "title": "LlSetText",
        "id": 3171,
        "type": "fn",
        "deprecated": false,
        "is_new": false,
        "counter": 185969,
        "touched": "2014-04-01T04:38:47Z"
    },
    "3172": {
        "title": "LlRemoveInventory",
        "id": 3172,
        "type": "fn",
        "deprecated": false,
        "is_new": false,
        "counter": 69087,
        "touched": "2014-04-01T04:38:47Z"
    },
    "3173": {
        "title": "LlGiveInventory",
        "id": 3173,
        "type": "fn",
        "deprecated": false,
        "is_new": false,
        "counter": 133114,
        "touched": "2014-04-01T04:38:47Z"
    },
    "3174": {
        "title": "LlGetEnergy",
        "id": 3174,
        "type": "fn",
        "deprecated": false,
        "is_new": false,
        "counter": 50462,
        "touched": "2014-04-04T18:08:22Z"
    },
    "3175": {
        "title": "LlSetScriptState",
        "id": 3175,
        "type": "fn",
        "deprecated": false,
        "is_new": false,
        "counter": 77849,
        "touched": "2014-04-01T04:38:47Z"
    },
    "3176": {
        "title": "LlGetInventoryName",
        "id": 3176,
        "type": "fn",
        "deprecated": false,
        "is_new": false,
        "counter": 122575,
        "touched": "2014-04-01T04:38:47Z"
    },
    "3177": {
        "title": "LlGetInventoryNumber",
        "id": 3177,
        "type": "fn",
        "deprecated": false,
        "is_new": false,
        "counter": 83550,
        "touched": "2014-04-01T04:38:47Z"
    },
    "3178": {
        "title": "LlGetLinkName",
        "id": 3178,
        "type": "fn",
        "deprecated": false,
        "is_new": false,
        "counter": 80474,
        "touched": "2014-04-01T04:38:47Z"
    },
    "3179": {
        "title": "LlGetLinkKey",
        "id": 3179,
        "type": "fn",
        "deprecated": false,
        "is_new": false,
        "counter": 81429,
        "touched": "2014-04-01T04:38:47Z"
    },
    "3180": {
        "title": "LlBreakAllLinks",
        "id": 3180,
        "type": "fn",
        "deprecated": false,
        "is_new": false,
        "counter": 56768,
        "touched": "2014-04-01T04:38:47Z"
    },
    "3181": {
        "title": "LlBreakLink",
        "id": 3181,
        "type": "fn",
        "deprecated": false,
        "is_new": false,
        "counter": 71692,
        "touched": "2014-04-01T04:38:47Z"
    },
    "3182": {
        "title": "LlCreateLink",
        "id": 3182,
        "type": "fn",
        "deprecated": false,
        "is_new": false,
        "counter": 74358,
        "touched": "2014-04-01T04:38:47Z"
    },
    "3183": {
        "title": "LlSetLinkColor",
        "id": 3183,
        "type": "fn",
        "deprecated": false,
        "is_new": false,
        "counter": 71092,
        "touched": "2014-04-01T04:38:47Z"
    },
    "3184": {
        "title": "LlGetLinkNumber",
        "id": 3184,
        "type": "fn",
        "deprecated": false,
        "is_new": false,
        "counter": 85498,
        "touched": "2014-04-01T04:38:47Z"
    },
    "3185": {
        "title": "LlGetPermissions",
        "id": 3185,
        "type": "fn",
        "deprecated": false,
        "is_new": false,
        "counter": 87030,
        "touched": "2014-04-07T19:47:00Z"
    },
    "3186": {
        "title": "LlGetPermissionsKey",
        "id": 3186,
        "type": "fn",
        "deprecated": false,
        "is_new": false,
        "counter": 59857,
        "touched": "2014-04-01T04:38:47Z"
    },
    "3187": {
        "title": "LlRequestPermissions",
        "id": 3187,
        "type": "fn",
        "deprecated": false,
        "is_new": false,
        "counter": 129496,
        "touched": "2014-04-07T19:47:00Z"
    },
    "3189": {
        "title": "LlGetStartParameter",
        "id": 3189,
        "type": "fn",
        "deprecated": false,
        "is_new": false,
        "counter": 67237,
        "touched": "2014-04-01T04:38:47Z"
    },
    "3190": {
        "title": "LlTargetOmega",
        "id": 3190,
        "type": "fn",
        "deprecated": false,
        "is_new": false,
        "counter": 139330,
        "touched": "2014-04-04T18:08:22Z"
    },
    "3191": {
        "title": "LlStopPointAt",
        "id": 3191,
        "type": "fn",
        "deprecated": true,
        "is_new": false,
        "counter": 40220,
        "touched": "2014-04-01T04:38:47Z"
    },
    "3192": {
        "title": "LlPointAt",
        "id": 3192,
        "type": "fn",
        "deprecated": true,
        "is_new": false,
        "counter": 47733,
        "touched": "2014-04-04T18:08:22Z"
    },
    "3193": {
        "title": "LlStopAnimation",
        "id": 3193,
        "type": "fn",
        "deprecated": false,
        "is_new": false,
        "counter": 73310,
        "touched": "2014-04-01T04:38:47Z"
    },
    "3194": {
        "title": "LlStartAnimation",
        "id": 3194,
        "type": "fn",
        "deprecated": false,
        "is_new": false,
        "counter": 131048,
        "touched": "2014-04-01T04:38:47Z"
    },
    "3195": {
        "title": "LlStringLength",
        "id": 3195,
        "type": "fn",
        "deprecated": false,
        "is_new": false,
        "counter": 68090,
        "touched": "2014-04-01T04:38:47Z"
    },
    "3196": {
        "title": "LlRotLookAt",
        "id": 3196,
        "type": "fn",
        "deprecated": false,
        "is_new": false,
        "counter": 78388,
        "touched": "2014-04-01T04:38:47Z"
    },
    "3197": {
        "title": "LlSoundPreload",
        "id": 3197,
        "type": "fn",
        "deprecated": true,
        "is_new": false,
        "counter": 43418,
        "touched": "2014-04-01T04:38:47Z"
    },
    "3198": {
        "title": "LlMinEventDelay",
        "id": 3198,
        "type": "fn",
        "deprecated": false,
        "is_new": false,
        "counter": 56144,
        "touched": "2014-04-01T04:38:47Z"
    },
    "3199": {
        "title": "LlStopHover",
        "id": 3199,
        "type": "fn",
        "deprecated": false,
        "is_new": false,
        "counter": 43700,
        "touched": "2014-04-01T04:38:47Z"
    },
    "3200": {
        "title": "LlSetHoverHeight",
        "id": 3200,
        "type": "fn",
        "deprecated": false,
        "is_new": false,
        "counter": 63732,
        "touched": "2014-04-01T04:38:47Z"
    },
    "3201": {
        "title": "LlSetBuoyancy",
        "id": 3201,
        "type": "fn",
        "deprecated": false,
        "is_new": false,
        "counter": 68028,
        "touched": "2014-04-01T04:38:47Z"
    },
    "3202": {
        "title": "LlGetKey",
        "id": 3202,
        "type": "fn",
        "deprecated": false,
        "is_new": false,
        "counter": 96329,
        "touched": "2014-04-01T04:38:47Z"
    },
    "3203": {
        "title": "LlGetNextEmail",
        "id": 3203,
        "type": "fn",
        "deprecated": false,
        "is_new": false,
        "counter": 57074,
        "touched": "2014-04-01T04:38:47Z"
    },
    "3205": {
        "title": "LlInstantMessage",
        "id": 3205,
        "type": "fn",
        "deprecated": false,
        "is_new": false,
        "counter": 137717,
        "touched": "2014-04-01T04:38:47Z"
    },
    "3206": {
        "title": "LlGetOwner",
        "id": 3206,
        "type": "fn",
        "deprecated": false,
        "is_new": false,
        "counter": 131779,
        "touched": "2014-04-01T04:38:47Z"
    },
    "3207": {
        "title": "LlReleaseCamera",
        "id": 3207,
        "type": "fn",
        "deprecated": true,
        "is_new": false,
        "counter": 43168,
        "touched": "2014-04-01T04:38:47Z"
    },
    "3208": {
        "title": "LlTakeCamera",
        "id": 3208,
        "type": "fn",
        "deprecated": true,
        "is_new": false,
        "counter": 44883,
        "touched": "2014-04-01T04:38:47Z"
    },
    "3209": {
        "title": "LlDetachFromAvatar",
        "id": 3209,
        "type": "fn",
        "deprecated": false,
        "is_new": false,
        "counter": 78715,
        "touched": "2014-04-01T04:38:47Z"
    },
    "3210": {
        "title": "LlAttachToAvatar",
        "id": 3210,
        "type": "fn",
        "deprecated": false,
        "is_new": false,
        "counter": 125133,
        "touched": "2014-04-04T18:08:22Z"
    },
    "3211": {
        "title": "LlReleaseControls",
        "id": 3211,
        "type": "fn",
        "deprecated": false,
        "is_new": false,
        "counter": 47962,
        "touched": "2014-04-01T04:38:47Z"
    },
    "3212": {
        "title": "LlTakeControls",
        "id": 3212,
        "type": "fn",
        "deprecated": false,
        "is_new": false,
        "counter": 98056,
        "touched": "2014-04-01T04:38:47Z"
    },
    "3213": {
        "title": "LlCollisionFilter",
        "id": 3213,
        "type": "fn",
        "deprecated": false,
        "is_new": false,
        "counter": 75119,
        "touched": "2014-04-01T04:38:47Z"
    },
    "3214": {
        "title": "LlGetMass",
        "id": 3214,
        "type": "fn",
        "deprecated": false,
        "is_new": false,
        "counter": 55588,
        "touched": "2014-04-01T04:38:47Z"
    },
    "3215": {
        "title": "LlSleep",
        "id": 3215,
        "type": "fn",
        "deprecated": false,
        "is_new": false,
        "counter": 81389,
        "touched": "2014-04-04T18:08:22Z"
    },
    "3216": {
        "title": "LlSetTimerEvent",
        "id": 3216,
        "type": "fn",
        "deprecated": false,
        "is_new": false,
        "counter": 135543,
        "touched": "2014-04-01T04:38:47Z"
    },
    "3217": {
        "title": "LlStopLookAt",
        "id": 3217,
        "type": "fn",
        "deprecated": false,
        "is_new": false,
        "counter": 45968,
        "touched": "2014-04-01T04:38:47Z"
    },
    "3218": {
        "title": "LlLookAt",
        "id": 3218,
        "type": "fn",
        "deprecated": false,
        "is_new": false,
        "counter": 90341,
        "touched": "2014-04-01T04:38:47Z"
    },
    "3219": {
        "title": "LlRezObject",
        "id": 3219,
        "type": "fn",
        "deprecated": false,
        "is_new": false,
        "counter": 174450,
        "touched": "2014-04-01T04:38:47Z"
    },
    "3220": {
        "title": "LlMakeSmoke",
        "id": 3220,
        "type": "fn",
        "deprecated": true,
        "is_new": false,
        "counter": 56083,
        "touched": "2014-04-01T04:38:47Z"
    },
    "3221": {
        "title": "LlMakeFire",
        "id": 3221,
        "type": "fn",
        "deprecated": true,
        "is_new": false,
        "counter": 58322,
        "touched": "2014-04-01T04:38:47Z"
    },
    "3222": {
        "title": "LlMakeFountain",
        "id": 3222,
        "type": "fn",
        "deprecated": true,
        "is_new": false,
        "counter": 50661,
        "touched": "2014-04-01T04:38:47Z"
    },
    "3223": {
        "title": "LlMakeExplosion",
        "id": 3223,
        "type": "fn",
        "deprecated": true,
        "is_new": false,
        "counter": 56735,
        "touched": "2014-04-01T04:38:47Z"
    },
    "3224": {
        "title": "LlGiveMoney",
        "id": 3224,
        "type": "fn",
        "deprecated": false,
        "is_new": false,
        "counter": 92953,
        "touched": "2014-04-01T04:38:47Z"
    },
    "3225": {
        "title": "LlToLower",
        "id": 3225,
        "type": "fn",
        "deprecated": false,
        "is_new": false,
        "counter": 55910,
        "touched": "2014-04-01T04:38:47Z"
    },
    "3226": {
        "title": "LlToUpper",
        "id": 3226,
        "type": "fn",
        "deprecated": false,
        "is_new": false,
        "counter": 49192,
        "touched": "2014-04-01T04:38:47Z"
    },
    "3227": {
        "title": "LlInsertString",
        "id": 3227,
        "type": "fn",
        "deprecated": false,
        "is_new": false,
        "counter": 55802,
        "touched": "2014-04-01T04:38:47Z"
    },
    "3228": {
        "title": "LlDeleteSubString",
        "id": 3228,
        "type": "fn",
        "deprecated": false,
        "is_new": false,
        "counter": 67011,
        "touched": "2014-04-01T04:38:47Z"
    },
    "3229": {
        "title": "LlGetSubString",
        "id": 3229,
        "type": "fn",
        "deprecated": false,
        "is_new": false,
        "counter": 117664,
        "touched": "2014-04-01T04:38:47Z"
    },
    "3230": {
        "title": "LlPreloadSound",
        "id": 3230,
        "type": "fn",
        "deprecated": false,
        "is_new": false,
        "counter": 63448,
        "touched": "2014-04-01T04:38:47Z"
    },
    "3231": {
        "title": "LlStopSound",
        "id": 3231,
        "type": "fn",
        "deprecated": false,
        "is_new": false,
        "counter": 55943,
        "touched": "2014-04-01T04:38:47Z"
    },
    "3232": {
        "title": "LlTriggerSound",
        "id": 3232,
        "type": "fn",
        "deprecated": false,
        "is_new": false,
        "counter": 75110,
        "touched": "2014-04-01T04:38:47Z"
    },
    "3233": {
        "title": "LlPlaySoundSlave",
        "id": 3233,
        "type": "fn",
        "deprecated": false,
        "is_new": false,
        "counter": 53345,
        "touched": "2014-04-01T04:38:47Z"
    },
    "3234": {
        "title": "LlLoopSoundSlave",
        "id": 3234,
        "type": "fn",
        "deprecated": false,
        "is_new": false,
        "counter": 52533,
        "touched": "2014-04-01T04:38:47Z"
    },
    "3235": {
        "title": "LlLoopSoundMaster",
        "id": 3235,
        "type": "fn",
        "deprecated": false,
        "is_new": false,
        "counter": 51457,
        "touched": "2014-04-01T04:38:47Z"
    },
    "3236": {
        "title": "LlLoopSound",
        "id": 3236,
        "type": "fn",
        "deprecated": false,
        "is_new": false,
        "counter": 81379,
        "touched": "2014-04-01T04:38:47Z"
    },
    "3237": {
        "title": "LlPlaySound",
        "id": 3237,
        "type": "fn",
        "deprecated": false,
        "is_new": false,
        "counter": 124086,
        "touched": "2014-04-01T04:38:47Z"
    },
    "3238": {
        "title": "LlSound",
        "id": 3238,
        "type": "fn",
        "deprecated": true,
        "is_new": false,
        "counter": 53220,
        "touched": "2014-04-01T04:38:47Z"
    },
    "3242": {
        "title": "LlGetWallclock",
        "id": 3242,
        "type": "fn",
        "deprecated": false,
        "is_new": false,
        "counter": 68698,
        "touched": "2014-04-01T04:38:47Z"
    },
    "3243": {
        "title": "LlGetTimeOfDay",
        "id": 3243,
        "type": "fn",
        "deprecated": false,
        "is_new": false,
        "counter": 63294,
        "touched": "2014-04-01T04:38:47Z"
    },
    "3244": {
        "title": "LlGetOmega",
        "id": 3244,
        "type": "fn",
        "deprecated": false,
        "is_new": false,
        "counter": 52956,
        "touched": "2014-04-01T04:38:47Z"
    },
    "3245": {
        "title": "LlGetAccel",
        "id": 3245,
        "type": "fn",
        "deprecated": false,
        "is_new": false,
        "counter": 52464,
        "touched": "2014-04-01T04:38:47Z"
    },
    "3246": {
        "title": "LlGetVel",
        "id": 3246,
        "type": "fn",
        "deprecated": false,
        "is_new": false,
        "counter": 58038,
        "touched": "2014-04-01T04:38:47Z"
    },
    "3247": {
        "title": "LlSetForceAndTorque",
        "id": 3247,
        "type": "fn",
        "deprecated": false,
        "is_new": false,
        "counter": 48419,
        "touched": "2014-04-01T04:38:47Z"
    },
    "3248": {
        "title": "LlGetTorque",
        "id": 3248,
        "type": "fn",
        "deprecated": false,
        "is_new": false,
        "counter": 45834,
        "touched": "2014-04-01T04:38:47Z"
    },
    "3249": {
        "title": "LlSetTorque",
        "id": 3249,
        "type": "fn",
        "deprecated": false,
        "is_new": false,
        "counter": 51384,
        "touched": "2014-04-04T18:08:22Z"
    },
    "3250": {
        "title": "LlApplyRotationalImpulse",
        "id": 3250,
        "type": "fn",
        "deprecated": false,
        "is_new": false,
        "counter": 58275,
        "touched": "2014-04-01T04:38:47Z"
    },
    "3251": {
        "title": "LlApplyImpulse",
        "id": 3251,
        "type": "fn",
        "deprecated": false,
        "is_new": false,
        "counter": 89351,
        "touched": "2014-04-01T04:38:47Z"
    },
    "3252": {
        "title": "LlStopMoveToTarget",
        "id": 3252,
        "type": "fn",
        "deprecated": false,
        "is_new": false,
        "counter": 49388,
        "touched": "2014-04-01T04:38:47Z"
    },
    "3253": {
        "title": "LlMoveToTarget",
        "id": 3253,
        "type": "fn",
        "deprecated": false,
        "is_new": false,
        "counter": 137007,
        "touched": "2014-04-01T04:38:47Z"
    },
    "3254": {
        "title": "LlRotTargetRemove",
        "id": 3254,
        "type": "fn",
        "deprecated": false,
        "is_new": false,
        "counter": 40699,
        "touched": "2014-04-01T04:38:47Z"
    },
    "3255": {
        "title": "LlRotTarget",
        "id": 3255,
        "type": "fn",
        "deprecated": false,
        "is_new": false,
        "counter": 55222,
        "touched": "2014-04-01T04:38:47Z"
    },
    "3256": {
        "title": "LlTargetRemove",
        "id": 3256,
        "type": "fn",
        "deprecated": false,
        "is_new": false,
        "counter": 44621,
        "touched": "2014-04-01T04:38:47Z"
    },
    "3257": {
        "title": "LlTarget",
        "id": 3257,
        "type": "fn",
        "deprecated": false,
        "is_new": false,
        "counter": 70762,
        "touched": "2014-04-01T04:38:47Z"
    },
    "3258": {
        "title": "LlGetForce",
        "id": 3258,
        "type": "fn",
        "deprecated": false,
        "is_new": false,
        "counter": 50251,
        "touched": "2014-04-01T04:38:47Z"
    },
    "3259": {
        "title": "LlSetForce",
        "id": 3259,
        "type": "fn",
        "deprecated": false,
        "is_new": false,
        "counter": 70813,
        "touched": "2014-04-01T04:38:47Z"
    },
    "3260": {
        "title": "LlGetLocalRot",
        "id": 3260,
        "type": "fn",
        "deprecated": false,
        "is_new": false,
        "counter": 75142,
        "touched": "2014-04-01T04:38:47Z"
    },
    "3261": {
        "title": "LlGetRot",
        "id": 3261,
        "type": "fn",
        "deprecated": false,
        "is_new": false,
        "counter": 93971,
        "touched": "2014-04-01T04:38:47Z"
    },
    "3263": {
        "title": "LlGetLocalPos",
        "id": 3263,
        "type": "fn",
        "deprecated": false,
        "is_new": false,
        "counter": 83594,
        "touched": "2014-04-01T04:38:47Z"
    },
    "3264": {
        "title": "LlGetPos",
        "id": 3264,
        "type": "fn",
        "deprecated": false,
        "is_new": false,
        "counter": 125927,
        "touched": "2014-04-01T04:38:47Z"
    },
    "3265": {
        "title": "LlSetPos",
        "id": 3265,
        "type": "fn",
        "deprecated": false,
        "is_new": false,
        "counter": 137018,
        "touched": "2014-04-01T04:38:47Z"
    },
    "3266": {
        "title": "LlGetTexture",
        "id": 3266,
        "type": "fn",
        "deprecated": false,
        "is_new": false,
        "counter": 76470,
        "touched": "2014-04-01T04:38:47Z"
    },
    "3267": {
        "title": "LlOffsetTexture",
        "id": 3267,
        "type": "fn",
        "deprecated": false,
        "is_new": false,
        "counter": 61506,
        "touched": "2014-04-01T04:38:47Z"
    },
    "3268": {
        "title": "LlRotateTexture",
        "id": 3268,
        "type": "fn",
        "deprecated": false,
        "is_new": false,
        "counter": 61282,
        "touched": "2014-04-01T04:38:47Z"
    },
    "3269": {
        "title": "LlScaleTexture",
        "id": 3269,
        "type": "fn",
        "deprecated": false,
        "is_new": false,
        "counter": 55038,
        "touched": "2014-04-01T04:38:47Z"
    },
    "3270": {
        "title": "LlSetTexture",
        "id": 3270,
        "type": "fn",
        "deprecated": false,
        "is_new": false,
        "counter": 141182,
        "touched": "2014-04-01T04:38:47Z"
    },
    "3271": {
        "title": "LlGetColor",
        "id": 3271,
        "type": "fn",
        "deprecated": false,
        "is_new": false,
        "counter": 66214,
        "touched": "2014-04-01T04:38:47Z"
    },
    "3272": {
        "title": "LlSetAlpha",
        "id": 3272,
        "type": "fn",
        "deprecated": false,
        "is_new": false,
        "counter": 98733,
        "touched": "2014-04-01T04:38:47Z"
    },
    "3273": {
        "title": "LlGetAlpha",
        "id": 3273,
        "type": "fn",
        "deprecated": false,
        "is_new": false,
        "counter": 59704,
        "touched": "2014-04-01T04:38:47Z"
    },
    "3274": {
        "title": "LlSetColor",
        "id": 3274,
        "type": "fn",
        "deprecated": false,
        "is_new": false,
        "counter": 101483,
        "touched": "2014-04-01T04:38:47Z"
    },
    "3275": {
        "title": "LlGetScale",
        "id": 3275,
        "type": "fn",
        "deprecated": false,
        "is_new": false,
        "counter": 60704,
        "touched": "2014-04-01T04:38:47Z"
    },
    "3276": {
        "title": "LlSetScale",
        "id": 3276,
        "type": "fn",
        "deprecated": false,
        "is_new": false,
        "counter": 72306,
        "touched": "2014-04-01T04:38:47Z"
    },
    "3277": {
        "title": "LlGetStatus",
        "id": 3277,
        "type": "fn",
        "deprecated": false,
        "is_new": false,
        "counter": 60025,
        "touched": "2014-04-01T04:38:47Z"
    },
    "3278": {
        "title": "LlSetStatus",
        "id": 3278,
        "type": "fn",
        "deprecated": false,
        "is_new": false,
        "counter": 98286,
        "touched": "2014-04-01T04:38:47Z"
    },
    "3279": {
        "title": "LlWind",
        "id": 3279,
        "type": "fn",
        "deprecated": false,
        "is_new": false,
        "counter": 57267,
        "touched": "2014-04-01T04:38:47Z"
    },
    "3280": {
        "title": "LlCloud",
        "id": 3280,
        "type": "fn",
        "deprecated": true,
        "is_new": false,
        "counter": 61495,
        "touched": "2014-04-04T18:08:22Z"
    },
    "3281": {
        "title": "LlGround",
        "id": 3281,
        "type": "fn",
        "deprecated": false,
        "is_new": false,
        "counter": 61099,
        "touched": "2014-04-01T04:38:47Z"
    },
    "3282": {
        "title": "LlDie",
        "id": 3282,
        "type": "fn",
        "deprecated": false,
        "is_new": false,
        "counter": 88063,
        "touched": "2014-04-04T18:08:22Z"
    },
    "3283": {
        "title": "LlDetectedLinkNumber",
        "id": 3283,
        "type": "fn",
        "deprecated": false,
        "is_new": false,
        "counter": 82654,
        "touched": "2014-04-01T04:38:47Z"
    },
    "3284": {
        "title": "LlDetectedGroup",
        "id": 3284,
        "type": "fn",
        "deprecated": false,
        "is_new": false,
        "counter": 86730,
        "touched": "2014-04-04T18:08:22Z"
    },
    "3285": {
        "title": "LlDetectedRot",
        "id": 3285,
        "type": "fn",
        "deprecated": false,
        "is_new": false,
        "counter": 59980,
        "touched": "2014-04-01T04:38:47Z"
    },
    "3286": {
        "title": "LlDetectedGrab",
        "id": 3286,
        "type": "fn",
        "deprecated": false,
        "is_new": false,
        "counter": 59897,
        "touched": "2014-04-01T04:38:47Z"
    },
    "3287": {
        "title": "LlDetectedVel",
        "id": 3287,
        "type": "fn",
        "deprecated": false,
        "is_new": false,
        "counter": 60584,
        "touched": "2014-04-01T04:38:47Z"
    },
    "3288": {
        "title": "LlDetectedPos",
        "id": 3288,
        "type": "fn",
        "deprecated": false,
        "is_new": false,
        "counter": 82187,
        "touched": "2014-04-01T04:38:47Z"
    },
    "3289": {
        "title": "LlDetectedType",
        "id": 3289,
        "type": "fn",
        "deprecated": false,
        "is_new": false,
        "counter": 72519,
        "touched": "2014-04-01T04:38:47Z"
    },
    "3290": {
        "title": "LlDetectedOwner",
        "id": 3290,
        "type": "fn",
        "deprecated": false,
        "is_new": false,
        "counter": 75667,
        "touched": "2014-04-01T04:38:47Z"
    },
    "3291": {
        "title": "LlDetectedKey",
        "id": 3291,
        "type": "fn",
        "deprecated": false,
        "is_new": false,
        "counter": 124624,
        "touched": "2014-04-01T04:38:47Z"
    },
    "3292": {
        "title": "LlDetectedName",
        "id": 3292,
        "type": "fn",
        "deprecated": false,
        "is_new": false,
        "counter": 98970,
        "touched": "2014-04-01T04:38:47Z"
    },
    "3293": {
        "title": "LlSensorRemove",
        "id": 3293,
        "type": "fn",
        "deprecated": false,
        "is_new": false,
        "counter": 52885,
        "touched": "2014-04-04T18:47:51Z"
    },
    "3294": {
        "title": "LlSensorRepeat",
        "id": 3294,
        "type": "fn",
        "deprecated": false,
        "is_new": false,
        "counter": 145011,
        "touched": "2014-04-04T19:49:11Z"
    },
    "3295": {
        "title": "LlSensor",
        "id": 3295,
        "type": "fn",
        "deprecated": false,
        "is_new": false,
        "counter": 167458,
        "touched": "2014-04-04T18:54:20Z"
    },
    "3296": {
        "title": "LlListenRemove",
        "id": 3296,
        "type": "fn",
        "deprecated": false,
        "is_new": false,
        "counter": 70172,
        "touched": "2014-04-01T04:38:47Z"
    },
    "3297": {
        "title": "LlListenControl",
        "id": 3297,
        "type": "fn",
        "deprecated": false,
        "is_new": false,
        "counter": 72998,
        "touched": "2014-04-01T04:38:47Z"
    },
    "3298": {
        "title": "LlListen",
        "id": 3298,
        "type": "fn",
        "deprecated": false,
        "is_new": false,
        "counter": 236616,
        "touched": "2014-04-01T04:38:47Z"
    },
    "3299": {
        "title": "LlShout",
        "id": 3299,
        "type": "fn",
        "deprecated": false,
        "is_new": false,
        "counter": 66680,
        "touched": "2014-04-04T18:33:20Z"
    },
    "3300": {
        "title": "LlSay",
        "id": 3300,
        "type": "fn",
        "deprecated": false,
        "is_new": false,
        "counter": 177165,
        "touched": "2014-04-04T18:08:22Z"
    },
    "3301": {
        "title": "LlWhisper",
        "id": 3301,
        "type": "fn",
        "deprecated": false,
        "is_new": false,
        "counter": 77599,
        "touched": "2014-04-04T18:08:22Z"
    },
    "3302": {
        "title": "LlRotBetween",
        "id": 3302,
        "type": "fn",
        "deprecated": false,
        "is_new": false,
        "counter": 65437,
        "touched": "2014-04-01T04:38:47Z"
    },
    "3303": {
        "title": "LlRot2Up",
        "id": 3303,
        "type": "fn",
        "deprecated": false,
        "is_new": false,
        "counter": 53621,
        "touched": "2014-04-01T04:38:47Z"
    },
    "3304": {
        "title": "LlRot2Left",
        "id": 3304,
        "type": "fn",
        "deprecated": false,
        "is_new": false,
        "counter": 49363,
        "touched": "2014-04-01T04:38:47Z"
    },
    "3305": {
        "title": "LlRot2Fwd",
        "id": 3305,
        "type": "fn",
        "deprecated": false,
        "is_new": false,
        "counter": 57134,
        "touched": "2014-04-01T04:38:47Z"
    },
    "3306": {
        "title": "LlAxes2Rot",
        "id": 3306,
        "type": "fn",
        "deprecated": false,
        "is_new": false,
        "counter": 56838,
        "touched": "2014-04-01T04:38:47Z"
    },
    "3307": {
        "title": "LlEuler2Rot",
        "id": 3307,
        "type": "fn",
        "deprecated": false,
        "is_new": false,
        "counter": 80961,
        "touched": "2014-04-01T04:38:47Z"
    },
    "3319": {
        "title": "LlGetTime",
        "id": 3319,
        "type": "fn",
        "deprecated": false,
        "is_new": false,
        "counter": 86565,
        "touched": "2014-04-01T04:38:47Z"
    },
    "3320": {
        "title": "LlResetTime",
        "id": 3320,
        "type": "fn",
        "deprecated": false,
        "is_new": false,
        "counter": 53790,
        "touched": "2014-04-01T04:38:47Z"
    },
    "3323": {
        "title": "LlGetAndResetTime",
        "id": 3323,
        "type": "fn",
        "deprecated": false,
        "is_new": false,
        "counter": 61893,
        "touched": "2014-04-01T04:38:47Z"
    },
    "3342": {
        "title": "LlSetVehicleRotationParam",
        "id": 3342,
        "type": "fn",
        "deprecated": false,
        "is_new": false,
        "counter": 45122,
        "touched": "2014-04-01T04:38:47Z"
    },
    "3517": {
        "title": "LlTeleportAgent",
        "id": 3517,
        "type": "fn",
        "deprecated": false,
        "is_new": false,
        "counter": 66158,
        "touched": "2014-04-01T04:38:47Z"
    },
    "4331": {
        "title": "LlSetRot",
        "id": 4331,
        "type": "fn",
        "deprecated": false,
        "is_new": false,
        "counter": 127092,
        "touched": "2014-04-01T04:38:47Z"
    },
    "4493": {
        "title": "LlSetLinkPrimitiveParams",
        "id": 4493,
        "type": "fn",
        "deprecated": false,
        "is_new": false,
        "counter": 196725,
        "touched": "2014-04-07T17:13:53Z"
    },
    "4495": {
        "title": "LlSetLinkTexture",
        "id": 4495,
        "type": "fn",
        "deprecated": false,
        "is_new": false,
        "counter": 90527,
        "touched": "2014-04-01T04:38:47Z"
    },
    "4684": {
        "title": "LlStringTrim",
        "id": 4684,
        "type": "fn",
        "deprecated": false,
        "is_new": false,
        "counter": 68118,
        "touched": "2014-04-01T04:38:47Z"
    },
    "5383": {
        "title": "LlRegionSay",
        "id": 5383,
        "type": "fn",
        "deprecated": false,
        "is_new": false,
        "counter": 84318,
        "touched": "2014-04-01T04:38:47Z"
    },
    "6712": {
        "title": "LlDetectedTouchFace",
        "id": 6712,
        "type": "fn",
        "deprecated": false,
        "is_new": false,
        "counter": 117733,
        "touched": "2014-04-01T04:38:47Z"
    },
    "7148": {
        "title": "LlGetObjectDetails",
        "id": 7148,
        "type": "fn",
        "deprecated": false,
        "is_new": false,
        "counter": 185286,
        "touched": "2014-04-01T04:38:47Z"
    },
    "8566": {
        "title": "LlHTTPResponse",
        "id": 8566,
        "type": "fn",
        "deprecated": false,
        "is_new": false,
        "counter": 60600,
        "touched": "2014-04-01T04:38:47Z"
    },
    "11982": {
        "title": "LlSetClickAction",
        "id": 11982,
        "type": "fn",
        "deprecated": false,
        "is_new": false,
        "counter": 61055,
        "touched": "2014-04-01T04:38:47Z"
    },
    "13454": {
        "title": "LlSensor/ja",
        "id": 13454,
        "type": "fn",
        "deprecated": false,
        "is_new": false,
        "counter": 25940,
        "touched": "2014-01-28T19:33:11Z"
    },
    "14102": {
        "title": "LlGetAgentLanguage",
        "id": 14102,
        "type": "fn",
        "deprecated": false,
        "is_new": false,
        "counter": 56846,
        "touched": "2014-04-01T04:38:47Z"
    },
    "14103": {
        "title": "LlTextBox",
        "id": 14103,
        "type": "fn",
        "deprecated": false,
        "is_new": false,
        "counter": 80188,
        "touched": "2014-04-01T04:38:47Z"
    },
    "14105": {
        "title": "LlGetRegionAgentCount",
        "id": 14105,
        "type": "fn",
        "deprecated": false,
        "is_new": false,
        "counter": 44627,
        "touched": "2014-04-01T04:38:47Z"
    },
    "15995": {
        "title": "LlDetectedTouchUV",
        "id": 15995,
        "type": "fn",
        "deprecated": false,
        "is_new": false,
        "counter": 64922,
        "touched": "2014-04-01T04:38:47Z"
    },
    "15996": {
        "title": "LlDetectedTouchNormal",
        "id": 15996,
        "type": "fn",
        "deprecated": false,
        "is_new": false,
        "counter": 44921,
        "touched": "2014-04-01T04:38:47Z"
    },
    "15997": {
        "title": "LlDetectedTouchBinormal",
        "id": 15997,
        "type": "fn",
        "deprecated": false,
        "is_new": false,
        "counter": 45511,
        "touched": "2014-04-01T04:38:47Z"
    },
    "15999": {
        "title": "LlDetectedTouchPos",
        "id": 15999,
        "type": "fn",
        "deprecated": false,
        "is_new": false,
        "counter": 58471,
        "touched": "2014-04-01T04:38:47Z"
    },
    "16000": {
        "title": "LlDetectedTouchST",
        "id": 16000,
        "type": "fn",
        "deprecated": false,
        "is_new": false,
        "counter": 67331,
        "touched": "2014-04-01T04:38:47Z"
    },
    "17835": {
        "title": "LlGenerateKey",
        "id": 17835,
        "type": "fn",
        "deprecated": false,
        "is_new": false,
        "counter": 37476,
        "touched": "2014-04-01T04:38:47Z"
    },
    "18786": {
        "title": "LlSHA1String",
        "id": 18786,
        "type": "fn",
        "deprecated": false,
        "is_new": false,
        "counter": 38008,
        "touched": "2014-04-01T04:38:47Z"
    },
    "48282": {
        "title": "LlGetFreeURLs",
        "id": 48282,
        "type": "fn",
        "deprecated": false,
        "is_new": false,
        "counter": 37237,
        "touched": "2014-04-01T04:38:47Z"
    },
    "48292": {
        "title": "LlRequestURL",
        "id": 48292,
        "type": "fn",
        "deprecated": false,
        "is_new": false,
        "counter": 55952,
        "touched": "2014-04-01T04:38:47Z"
    },
    "48302": {
        "title": "LlRequestSecureURL",
        "id": 48302,
        "type": "fn",
        "deprecated": false,
        "is_new": false,
        "counter": 31756,
        "touched": "2014-04-01T04:38:47Z"
    },
    "48312": {
        "title": "LlReleaseURL",
        "id": 48312,
        "type": "fn",
        "deprecated": false,
        "is_new": false,
        "counter": 32296,
        "touched": "2014-04-01T04:38:47Z"
    },
    "48352": {
        "title": "LlGetHTTPHeader",
        "id": 48352,
        "type": "fn",
        "deprecated": false,
        "is_new": false,
        "counter": 46936,
        "touched": "2014-04-01T04:38:47Z"
    },
    "80233": {
        "title": "LlGetLinkPrimitiveParams",
        "id": 80233,
        "type": "fn",
        "deprecated": false,
        "is_new": false,
        "counter": 107245,
        "touched": "2014-04-07T19:59:04Z"
    },
    "102133": {
        "title": "LlClearPrimMedia",
        "id": 102133,
        "type": "fn",
        "deprecated": false,
        "is_new": false,
        "counter": 38759,
        "touched": "2014-04-01T04:38:47Z"
    },
    "102143": {
        "title": "LlSetPrimMediaParams",
        "id": 102143,
        "type": "fn",
        "deprecated": false,
        "is_new": false,
        "counter": 59294,
        "touched": "2014-04-07T17:13:53Z"
    },
    "102153": {
        "title": "LlGetPrimMediaParams",
        "id": 102153,
        "type": "fn",
        "deprecated": false,
        "is_new": false,
        "counter": 37474,
        "touched": "2014-04-08T02:13:12Z"
    },
    "142333": {
        "title": "LlSetLinkPrimitiveParamsFast",
        "id": 142333,
        "type": "fn",
        "deprecated": false,
        "is_new": false,
        "counter": 143470,
        "touched": "2014-04-07T17:13:53Z"
    },
    "142343": {
        "title": "LlSetLinkTextureAnim",
        "id": 142343,
        "type": "fn",
        "deprecated": false,
        "is_new": false,
        "counter": 48937,
        "touched": "2014-04-01T04:38:47Z"
    },
    "142353": {
        "title": "LlLinkParticleSystem",
        "id": 142353,
        "type": "fn",
        "deprecated": false,
        "is_new": false,
        "counter": 43732,
        "touched": "2014-04-07T17:13:53Z"
    },
    "143092": {
        "title": "LlGetParcelMusicURL",
        "id": 143092,
        "type": "fn",
        "deprecated": false,
        "is_new": false,
        "counter": 31182,
        "touched": "2014-04-01T04:38:47Z"
    },
    "162932": {
        "title": "LlGetLinkNumberOfSides",
        "id": 162932,
        "type": "fn",
        "deprecated": false,
        "is_new": false,
        "counter": 32473,
        "touched": "2014-04-01T04:38:47Z"
    },
    "168912": {
        "title": "LlCastRay",
        "id": 168912,
        "type": "fn",
        "deprecated": false,
        "is_new": false,
        "counter": 77822,
        "touched": "2014-04-07T17:13:53Z"
    },
    "179492": {
        "title": "LlGetDisplayName",
        "id": 179492,
        "type": "fn",
        "deprecated": false,
        "is_new": false,
        "counter": 56306,
        "touched": "2014-04-01T04:38:47Z"
    },
    "179502": {
        "title": "LlRequestDisplayName",
        "id": 179502,
        "type": "fn",
        "deprecated": false,
        "is_new": false,
        "counter": 33415,
        "touched": "2014-04-01T04:38:47Z"
    },
    "179512": {
        "title": "LlGetUsername",
        "id": 179512,
        "type": "fn",
        "deprecated": false,
        "is_new": false,
        "counter": 46571,
        "touched": "2014-04-01T04:38:47Z"
    },
    "179522": {
        "title": "LlRequestUsername",
        "id": 179522,
        "type": "fn",
        "deprecated": false,
        "is_new": false,
        "counter": 37423,
        "touched": "2014-04-01T04:38:47Z"
    },
    "193153": {
        "title": "LlGetEnv",
        "id": 193153,
        "type": "fn",
        "deprecated": false,
        "is_new": false,
        "counter": 44571,
        "touched": "2014-04-01T04:38:47Z"
    },
    "196147": {
        "title": "LlSetSculptAnim",
        "id": 196147,
        "type": "fn",
        "deprecated": false,
        "is_new": false,
        "counter": 13377,
        "touched": "2014-04-01T04:38:47Z"
    },
    "196432": {
        "title": "LlGetUsedMemory",
        "id": 196432,
        "type": "fn",
        "deprecated": false,
        "is_new": false,
        "counter": 18442,
        "touched": "2014-04-01T04:38:47Z"
    },
    "196436": {
        "title": "LlScriptProfiler",
        "id": 196436,
        "type": "fn",
        "deprecated": false,
        "is_new": false,
        "counter": 23674,
        "touched": "2014-04-01T04:38:47Z"
    },
    "196457": {
        "title": "LlRegionSayTo",
        "id": 196457,
        "type": "fn",
        "deprecated": false,
        "is_new": false,
        "counter": 43501,
        "touched": "2014-04-01T04:38:47Z"
    },
    "196472": {
        "title": "LlGetSPMaxMemory",
        "id": 196472,
        "type": "fn",
        "deprecated": false,
        "is_new": false,
        "counter": 18234,
        "touched": "2014-04-01T04:38:47Z"
    },
    "197410": {
        "title": "LlSetMemoryLimit",
        "id": 197410,
        "type": "fn",
        "deprecated": false,
        "is_new": false,
        "counter": 18836,
        "touched": "2014-04-01T04:38:47Z"
    },
    "197411": {
        "title": "LlSetLinkMedia",
        "id": 197411,
        "type": "fn",
        "deprecated": false,
        "is_new": false,
        "counter": 23964,
        "touched": "2014-04-07T17:13:53Z"
    },
    "197412": {
        "title": "LlGetLinkMedia",
        "id": 197412,
        "type": "fn",
        "deprecated": false,
        "is_new": false,
        "counter": 22306,
        "touched": "2014-04-08T02:13:39Z"
    },
    "197413": {
        "title": "LlClearLinkMedia",
        "id": 197413,
        "type": "fn",
        "deprecated": false,
        "is_new": false,
        "counter": 20119,
        "touched": "2014-04-01T04:38:47Z"
    },
    "197415": {
        "title": "LlSetLinkCamera",
        "id": 197415,
        "type": "fn",
        "deprecated": false,
        "is_new": false,
        "counter": 17742,
        "touched": "2014-04-01T04:38:47Z"
    },
    "197416": {
        "title": "LlSetContentType",
        "id": 197416,
        "type": "fn",
        "deprecated": false,
        "is_new": false,
        "counter": 18340,
        "touched": "2014-04-01T04:38:47Z"
    },
    "197420": {
        "title": "LlLinkSitTarget",
        "id": 197420,
        "type": "fn",
        "deprecated": false,
        "is_new": false,
        "counter": 25762,
        "touched": "2014-04-04T16:08:59Z"
    },
    "197422": {
        "title": "LlAvatarOnLinkSitTarget",
        "id": 197422,
        "type": "fn",
        "deprecated": false,
        "is_new": false,
        "counter": 22549,
        "touched": "2014-04-01T04:38:47Z"
    },
    "197561": {
        "title": "LlGetMemoryLimit",
        "id": 197561,
        "type": "fn",
        "deprecated": false,
        "is_new": false,
        "counter": 15490,
        "touched": "2014-04-01T04:38:47Z"
    },
    "197562": {
        "title": "LlSetVelocity",
        "id": 197562,
        "type": "fn",
        "deprecated": false,
        "is_new": false,
        "counter": 13393,
        "touched": "2014-04-01T04:38:47Z"
    },
    "197563": {
        "title": "LlSetAngularVelocity",
        "id": 197563,
        "type": "fn",
        "deprecated": false,
        "is_new": false,
        "counter": 12343,
        "touched": "2014-04-01T04:38:47Z"
    },
    "197693": {
        "title": "LlSetKeyframedMotion",
        "id": 197693,
        "type": "fn",
        "deprecated": false,
        "is_new": false,
        "counter": 75385,
        "touched": "2014-04-07T17:13:53Z"
    },
    "198048": {
        "title": "LlManageEstateAccess",
        "id": 198048,
        "type": "fn",
        "deprecated": false,
        "is_new": false,
        "counter": 22152,
        "touched": "2014-04-01T04:38:47Z"
    },
    "198492": {
        "title": "LlTransferLindenDollars",
        "id": 198492,
        "type": "fn",
        "deprecated": false,
        "is_new": false,
        "counter": 31666,
        "touched": "2014-04-01T04:38:47Z"
    },
    "198643": {
        "title": "LlSetRegionPos",
        "id": 198643,
        "type": "fn",
        "deprecated": false,
        "is_new": false,
        "counter": 26761,
        "touched": "2014-04-01T04:38:47Z"
    },
    "198735": {
        "title": "LlGetMassMKS",
        "id": 198735,
        "type": "fn",
        "deprecated": false,
        "is_new": false,
        "counter": 11151,
        "touched": "2014-04-01T04:38:47Z"
    },
    "198784": {
        "title": "LlMatchGroup",
        "id": 198784,
        "type": "fn",
        "deprecated": false,
        "is_new": false,
        "counter": 12153,
        "touched": "2014-04-01T04:38:47Z"
    },
    "198790": {
        "title": "LlSetPhysicsMaterial",
        "id": 198790,
        "type": "fn",
        "deprecated": false,
        "is_new": false,
        "counter": 12542,
        "touched": "2014-04-01T04:38:47Z"
    },
    "198791": {
        "title": "LlGetPhysicsMaterial",
        "id": 198791,
        "type": "fn",
        "deprecated": false,
        "is_new": false,
        "counter": 11008,
        "touched": "2014-04-01T04:38:47Z"
    },
    "198934": {
        "title": "LlCreateCharacter",
        "id": 198934,
        "type": "fn",
        "deprecated": false,
        "is_new": false,
        "counter": 34737,
        "touched": "2014-04-07T17:13:53Z"
    },
    "198935": {
        "title": "LlDeleteCharacter",
        "id": 198935,
        "type": "fn",
        "deprecated": false,
        "is_new": false,
        "counter": 12787,
        "touched": "2014-04-01T04:38:47Z"
    },
    "198937": {
        "title": "LlEvade",
        "id": 198937,
        "type": "fn",
        "deprecated": false,
        "is_new": false,
        "counter": 16577,
        "touched": "2014-04-07T17:13:53Z"
    },
    "198939": {
        "title": "LlExecCharacterCmd",
        "id": 198939,
        "type": "fn",
        "deprecated": false,
        "is_new": false,
        "counter": 20852,
        "touched": "2014-04-07T17:13:53Z"
    },
    "198940": {
        "title": "LlGetClosestNavPoint",
        "id": 198940,
        "type": "fn",
        "deprecated": false,
        "is_new": false,
        "counter": 13091,
        "touched": "2014-04-07T17:13:53Z"
    },
    "198941": {
        "title": "LlFleeFrom",
        "id": 198941,
        "type": "fn",
        "deprecated": false,
        "is_new": false,
        "counter": 13953,
        "touched": "2014-04-07T17:13:53Z"
    },
    "198943": {
        "title": "LlNavigateTo",
        "id": 198943,
        "type": "fn",
        "deprecated": false,
        "is_new": false,
        "counter": 13805,
        "touched": "2014-04-07T17:13:53Z"
    },
    "198944": {
        "title": "LlPatrolPoints",
        "id": 198944,
        "type": "fn",
        "deprecated": false,
        "is_new": false,
        "counter": 14625,
        "touched": "2014-04-07T17:13:53Z"
    },
    "198946": {
        "title": "LlPursue",
        "id": 198946,
        "type": "fn",
        "deprecated": false,
        "is_new": false,
        "counter": 16609,
        "touched": "2014-04-07T17:13:53Z"
    },
    "198947": {
        "title": "LlUpdateCharacter",
        "id": 198947,
        "type": "fn",
        "deprecated": false,
        "is_new": false,
        "counter": 20305,
        "touched": "2014-04-07T17:13:53Z"
    },
    "198949": {
        "title": "LlWanderWithin",
        "id": 198949,
        "type": "fn",
        "deprecated": false,
        "is_new": false,
        "counter": 19063,
        "touched": "2014-04-07T17:13:53Z"
    },
    "199115": {
        "title": "LlGetAgentList",
        "id": 199115,
        "type": "fn",
        "deprecated": false,
        "is_new": false,
        "counter": 42483,
        "touched": "2014-04-07T17:13:53Z"
    },
    "199699": {
        "title": "LlTeleportAgentGlobalCoords",
        "id": 199699,
        "type": "fn",
        "deprecated": false,
        "is_new": true,
        "counter": 20340,
        "touched": "2014-04-01T04:38:47Z"
    },
    "199701": {
        "title": "LlAttachToAvatarTemp",
        "id": 199701,
        "type": "fn",
        "deprecated": false,
        "is_new": true,
        "counter": 30898,
        "touched": "2014-04-04T18:08:22Z"
    },
    "200165": {
        "title": "LlGetStaticPath",
        "id": 200165,
        "type": "fn",
        "deprecated": false,
        "is_new": true,
        "counter": 14034,
        "touched": "2014-04-01T04:38:47Z"
    },
    "200688": {
        "title": "LlGetSimStats",
        "id": 200688,
        "type": "fn",
        "deprecated": false,
        "is_new": true,
        "counter": 11711,
        "touched": "2014-04-01T04:38:47Z"
    },
    "201005": {
        "title": "LlSetAnimationOverride",
        "id": 201005,
        "type": "fn",
        "deprecated": false,
        "is_new": true,
        "counter": 15252,
        "touched": "2014-04-01T04:38:47Z"
    },
    "201006": {
        "title": "LlGetAnimationOverride",
        "id": 201006,
        "type": "fn",
        "deprecated": false,
        "is_new": true,
        "counter": 11545,
        "touched": "2014-04-01T04:38:47Z"
    },
    "201007": {
        "title": "LlResetAnimationOverride",
        "id": 201007,
        "type": "fn",
        "deprecated": false,
        "is_new": true,
        "counter": 9533,
        "touched": "2014-04-01T04:38:47Z"
    },
    "201312": {
        "title": "LlJson2List",
        "id": 201312,
        "type": "fn",
        "deprecated": false,
        "is_new": true,
        "counter": 6397,
        "touched": "2014-04-01T04:38:47Z"
    },
    "201313": {
        "title": "LlList2Json",
        "id": 201313,
        "type": "fn",
        "deprecated": false,
        "is_new": true,
        "counter": 8712,
        "touched": "2014-04-04T18:08:22Z"
    },
    "201314": {
        "title": "LlJsonGetValue",
        "id": 201314,
        "type": "fn",
        "deprecated": false,
        "is_new": true,
        "counter": 9761,
        "touched": "2014-04-01T04:38:47Z"
    },
    "201315": {
        "title": "LlJsonSetValue",
        "id": 201315,
        "type": "fn",
        "deprecated": false,
        "is_new": true,
        "counter": 9603,
        "touched": "2014-04-01T04:38:47Z"
    },
    "201316": {
        "title": "LlJsonValueType",
        "id": 201316,
        "type": "fn",
        "deprecated": false,
        "is_new": true,
        "counter": 8161,
        "touched": "2014-04-01T04:38:47Z"
    },
    "201332": {
        "title": "LlReturnObjectsByID",
        "id": 201332,
        "type": "fn",
        "deprecated": false,
        "is_new": true,
        "counter": 7987,
        "touched": "2014-04-01T04:38:47Z"
    },
    "201334": {
        "title": "LlReturnObjectsByOwner",
        "id": 201334,
        "type": "fn",
        "deprecated": false,
        "is_new": true,
        "counter": 8058,
        "touched": "2014-04-01T04:38:47Z"
    },
    "201361": {
        "title": "LlXorBase64",
        "id": 201361,
        "type": "fn",
        "deprecated": false,
        "is_new": true,
        "counter": 7532,
        "touched": "2014-04-01T04:38:47Z"
    },
    "202644": {
        "title": "LlGetMinScaleFactor",
        "id": 202644,
        "type": "fn",
        "deprecated": false,
        "is_new": true,
        "counter": 1293,
        "touched": "2014-04-01T04:38:47Z"
    },
    "202645": {
        "title": "LlScaleByFactor",
        "id": 202645,
        "type": "fn",
        "deprecated": false,
        "is_new": true,
        "counter": 2639,
        "touched": "2014-04-01T04:38:47Z"
    },
    "202646": {
        "title": "LlGetMaxScaleFactor",
        "id": 202646,
        "type": "fn",
        "deprecated": false,
        "is_new": true,
        "counter": 1313,
        "touched": "2014-04-01T04:38:47Z"
    }
}}